Deli4Test
…
1 Group, 2 Input Variables, Different Function For Each

Mean price and median square footage by year built

meanPricemedianSqftByYear = real_estate_data %>%
  group_by(year_built) %>%
  summarize(pricebdt_mean = mean(price_bdt),
            sizesqft_median = median(size_sqft))

meanPricemedianSqftByYear

# A tibble: 30 × 3
   year_built pricebdt_mean sizesqft_median
        <dbl>         <dbl>           <dbl>
 1       1980       130000            2800 
 2       1990       295000            3600 
 3       1994      1375000            5500 
 4       1995       281667.           3460 
 5       1997      1100000           15000 
 6       2000      2378669.           3460 
 7       2001       624000            5200 
 8       2002       273833.           3000 
 9       2003       115000            2518.
10       2004     11254025            2900 
# ℹ 20 more rows
…
